%YAML 1.1
%TAG !u! tag:unity3d.com,2011:
--- !u!114 &11400000
MonoBehaviour:
  m_ObjectHideFlags: 0
  m_PrefabParentObject: {fileID: 0}
  m_PrefabInternal: {fileID: 0}
  m_GameObject: {fileID: 0}
  m_Enabled: 1
  m_EditorHideFlags: 0
  m_Script: {fileID: 11500000, guid: 14b9a61ad69f0f648b9be3e6fe3e8baf, type: 3}
  m_Name: Invisibility
  m_EditorClassIdentifier: 
  ability: 0
  costType: 1
  resourceCost: 14.25
  icon: {fileID: 21300000, guid: eecf0b279c7d27747a1152a25b56ac20, type: 3}
  maxCharges: 0
  currentCharges: 0
  maxRange: 100
  cooldown: 1
  cooldownRemaining: 0
