%YAML 1.1
%TAG !u! tag:unity3d.com,2011:
--- !u!114 &11400000
MonoBehaviour:
  m_ObjectHideFlags: 0
  m_PrefabParentObject: {fileID: 0}
  m_PrefabInternal: {fileID: 0}
  m_GameObject: {fileID: 0}
  m_Enabled: 1
  m_EditorHideFlags: 0
  m_Script: {fileID: 11500000, guid: 012d1ae01c52efd40b47e4e320897f1d, type: 3}
  m_Name: Item_Trash
  m_EditorClassIdentifier: 
  itemName: Trash
  value: 5
  icon: {fileID: 2800000, guid: d86e39a9eca7d734b9d1d08aeab98c27, type: 3}
  type: 0
  quality: 0
  rarity: 0
